C:\Users\ajc\Desktop\WS_OxygenJenkins\calculette\src\main\java\com\thi\calculette\AbstractCalculette.java
C:\Users\ajc\Desktop\WS_OxygenJenkins\calculette\src\main\java\com\thi\calculette\package-info.java
C:\Users\ajc\Desktop\WS_OxygenJenkins\calculette\src\main\java\com\thi\calculette\SimpleCalculette.java
C:\Users\ajc\Desktop\WS_OxygenJenkins\calculette\src\main\java\com\thi\calculette\Util.java
C:\Users\ajc\Desktop\WS_OxygenJenkins\calculette\src\main\java\com\thi\calculette\Calculette.java
